{
	"Settings": {
		"CheckUnpublishedMessageLogFileSize": false,
		"Dummy": "Dummy"
	},

	"TestSiteSettings": {
		"Exists": true,
		"Verbose": true,
		"All": true,
		"IPv4Prefixes": "192.168|10.1",
		"TimeZones": "Pacific Standard Time|Central Standard Time",
		"TimeZoneOffsets": "-8|-6"
	},

  "FrameworkSettings": {
    "Exists": true,
    "Verbose": true,
    "All": true,
    "DefaultMinimumTransitTime": "00:00:00.00104",
    "DefaultCharacterBitCount": 10
  },
  
  "NullModemSettings": {
		"Exists": true,
		"Verbose": true,
		"All": true,
    "Port1Name": "COM3",
    "Port2Name": "COM4"
  }

}
