{
	"Settings": {
		"CheckUnpublishedMessageLogFileSize": false,
		"Dummy": "Dummy"
	},

	"TestSiteSettings": {
		"Exists": true,
		"Verbose": true,
		"All": true,
		"IPv4Prefixes": "192.168|10.1",
		"TimeZones": "Pacific Standard Time|Central Standard Time",
		"TimeZoneOffsets": "-8|-6"
	},

  "D1141Settings": {
		"Exists": true,
		"Verbose": true,
		"All": true,
		"PortName": "COM3",
		"BaudRate": 9600,
		"DataBits": 8,
		"StopBits": "One",
		"Parity": "None",
		"ModuleConfigurationFileName": "",
		"PortConfigurationFileName": "",
		"ModuleAddress": "02",
		"SetpointTemperature": 18
	}

}
